^C:\USERS\ΝΙΚΌΛΑς ΣΤΡΑΤΉΓΑς\DESKTOP\AVLTREE\AVLTREE\MAIN.CPP
C:\USERS\Νικόλας Στρατήγας\DESKTOP\AVLTREE\AVLTREE\DEBUG\VC141.PDB
C:\USERS\Νικόλας Στρατήγας\DESKTOP\AVLTREE\AVLTREE\DEBUG\VC141.IDB
C:\USERS\Νικόλας Στρατήγας\DESKTOP\AVLTREE\AVLTREE\DEBUG\MAIN.OBJ
